…
In order to reshape it so that I have one row per year, I will be spreading the table rather than gathering.

``` r
tidy_Asia %>%
  arrange(lifeExp)
```

    ## # A tibble: 24 x 3
    ## # Groups:   year [12]
    ##     year country     lifeExp
    ##    <int> <fct>         <dbl>
    ##  1  1952 Afghanistan    28.8
    ##  2  1957 Afghanistan    30.3
    ##  3  1977 Cambodia       31.2
    ##  4  1962 Afghanistan    32.0
    ##  5  1967 Afghanistan    34.0
    ##  6  1972 Afghanistan    36.1
    ##  7  1982 Afghanistan    39.9
    ##  8  1987 Afghanistan    40.8
    ##  9  1992 Afghanistan    41.7
    ## 10  1997 Afghanistan    41.8
    ## # ... with 14 more rows

``` r
#From here I can see that Afghanistan in 2007 has the maximum lowest lifeExp of 43.8. 
```

``` r
tidy_Asia %>% 
  mutate(max_Asia = lifeExp >50) %>% 
  mutate(min_Asia = lifeExp <50)
```

    ## # A tibble: 24 x 5
    ## # Groups:   year [12]
    ##     year country     lifeExp max_Asia min_Asia
    ##    <int> <fct>         <dbl> <lgl>    <lgl>   
    ##  1  1952 Afghanistan    28.8 FALSE    TRUE    
    ##  2  1952 Israel         65.4 TRUE     FALSE   
    ##  3  1957 Afghanistan    30.3 FALSE    TRUE    
    ##  4  1957 Israel         67.8 TRUE     FALSE   
    ##  5  1962 Afghanistan    32.0 FALSE    TRUE    
    ##  6  1962 Israel         69.4 TRUE     FALSE   
    ##  7  1967 Afghanistan    34.0 FALSE    TRUE    
    ##  8  1967 Japan          71.4 TRUE     FALSE   
    ##  9  1972 Afghanistan    36.1 FALSE    TRUE    
    ## 10  1972 Japan          73.4 TRUE     FALSE   
    ## # ... with 14 more rows
…
